[
  {
    "id": 105,
    "ST": "BCN",
    "nom": "Xarxes d'entorn social",
    "codi": "ensoc"
  },
  {
    "id": 113,
    "ST": "BCN",
    "nom": "Els estereotips dels nostre entorn",
    "codi": "estereotips"
  },
  {
    "id": 116,
    "ST": "BCN",
    "nom": "Escàner emocional",
    "codi": "escaneremocional"
  },
  {
    "id": 118,
    "ST": "BCN",
    "nom": "Ensenyant en les altes capacitats",
    "codi": "altescapacitats"
  }
]